<?xml version="1.0" encoding="UTF-8" standalone="no"?>
<svg xmlns="http://www.w3.org/2000/svg" xmlns:xlink="http://www.w3.org/1999/xlink" contentStyleType="text/css" height="989px" preserveAspectRatio="none" style="width:323px;height:989px;background:#FFFFFF;" version="1.1" viewBox="0 0 323 989" width="323px" zoomAndPan="magnify"><defs/><g><!--MD5=[2af8a3a0744cd41dd58c3c8242a084e1]
class MediaControllerBase--><g id="elem_MediaControllerBase"><rect codeLine="1" fill="#F1F1F1" height="227.2656" id="MediaControllerBase" rx="2.5" ry="2.5" style="stroke:#181818;stroke-width:0.5;" width="243" x="40" y="115"/><ellipse cx="82.9" cy="131" fill="#ADD1B2" rx="11" ry="11" style="stroke:#181818;stroke-width:1.0;"/><path d="M85.2438,126.6719 C84.3063,126.2344 83.7125,126.0938 82.8375,126.0938 C80.2125,126.0938 78.2125,128.1719 78.2125,130.8906 L78.2125,132.0156 C78.2125,134.5938 80.3219,136.4844 83.2125,136.4844 C84.4313,136.4844 85.5875,136.1875 86.3375,135.6406 C86.9156,135.2344 87.2438,134.7813 87.2438,134.3906 C87.2438,133.9375 86.8531,133.5469 86.3844,133.5469 C86.1656,133.5469 85.9625,133.625 85.775,133.8125 C85.3219,134.2969 85.3219,134.2969 85.1344,134.3906 C84.7125,134.6563 84.025,134.7813 83.2594,134.7813 C81.2125,134.7813 79.9156,133.6875 79.9156,131.9844 L79.9156,130.8906 C79.9156,129.1094 81.1656,127.7969 82.9,127.7969 C83.4781,127.7969 84.0875,127.9531 84.5563,128.2031 C85.0406,128.4844 85.2125,128.7031 85.3063,129.1094 C85.3688,129.5156 85.4,129.6406 85.5406,129.7656 C85.6813,129.9063 85.9156,130.0156 86.1344,130.0156 C86.4,130.0156 86.6656,129.875 86.8375,129.6563 C86.9469,129.5 86.9781,129.3125 86.9781,128.8906 L86.9781,127.4688 C86.9781,127.0313 86.9625,126.9063 86.8688,126.75 C86.7125,126.4844 86.4313,126.3438 86.1344,126.3438 C85.8375,126.3438 85.6344,126.4375 85.4156,126.75 L85.2438,126.6719 Z " fill="#000000"/><text fill="#000000" font-family="sans-serif" font-size="14" lengthAdjust="spacing" textLength="149" x="103.1" y="135.8467">MediaControllerBase</text><line style="stroke:#181818;stroke-width:0.5;" x1="41" x2="282" y1="147" y2="147"/><text fill="#000000" font-family="sans-serif" font-size="14" lengthAdjust="spacing" textLength="99" x="46" y="163.9951">QString name</text><text fill="#000000" font-family="sans-serif" font-size="14" lengthAdjust="spacing" textLength="90" x="46" y="180.292">QString title</text><text fill="#000000" font-family="sans-serif" font-size="14" lengthAdjust="spacing" textLength="88" x="46" y="196.5889">QString uuid</text><text fill="#000000" font-family="sans-serif" font-size="14" lengthAdjust="spacing" textLength="52" x="46" y="212.8857">QUrl url</text><text fill="#000000" font-family="sans-serif" font-size="14" lengthAdjust="spacing" textLength="231" x="46" y="229.1826">Core::ContenType contentType</text><text fill="#000000" font-family="sans-serif" font-size="14" lengthAdjust="spacing" textLength="80" x="46" y="245.4795">bool active</text><text fill="#000000" font-family="sans-serif" font-size="14" lengthAdjust="spacing" textLength="100" x="46" y="261.7764">bool modified</text><text fill="#000000" font-family="sans-serif" font-size="14" lengthAdjust="spacing" textLength="92" x="46" y="278.0732">bool localGM</text><text fill="#000000" font-family="sans-serif" font-size="14" lengthAdjust="spacing" textLength="116" x="46" y="294.3701">QString ownerId</text><text fill="#000000" font-family="sans-serif" font-size="14" lengthAdjust="spacing" textLength="105" x="46" y="310.667">QString localId</text><text fill="#000000" font-family="sans-serif" font-size="14" lengthAdjust="spacing" textLength="90" x="46" y="326.9639">bool remote</text><line style="stroke:#181818;stroke-width:0.5;" x1="41" x2="282" y1="334.2656" y2="334.2656"/></g><!--MD5=[8dd17ccd1ae0e0e4eb0a7117370c35f4]
class QObject--><g id="elem_QObject"><rect fill="#F1F1F1" height="48" id="QObject" rx="2.5" ry="2.5" style="stroke:#181818;stroke-width:0.5;" width="92" x="115.5" y="7"/><ellipse cx="130.5" cy="23" fill="#ADD1B2" rx="11" ry="11" style="stroke:#181818;stroke-width:1.0;"/><path d="M132.8438,18.6719 C131.9063,18.2344 131.3125,18.0938 130.4375,18.0938 C127.8125,18.0938 125.8125,20.1719 125.8125,22.8906 L125.8125,24.0156 C125.8125,26.5938 127.9219,28.4844 130.8125,28.4844 C132.0313,28.4844 133.1875,28.1875 133.9375,27.6406 C134.5156,27.2344 134.8438,26.7813 134.8438,26.3906 C134.8438,25.9375 134.4531,25.5469 133.9844,25.5469 C133.7656,25.5469 133.5625,25.625 133.375,25.8125 C132.9219,26.2969 132.9219,26.2969 132.7344,26.3906 C132.3125,26.6563 131.625,26.7813 130.8594,26.7813 C128.8125,26.7813 127.5156,25.6875 127.5156,23.9844 L127.5156,22.8906 C127.5156,21.1094 128.7656,19.7969 130.5,19.7969 C131.0781,19.7969 131.6875,19.9531 132.1563,20.2031 C132.6406,20.4844 132.8125,20.7031 132.9063,21.1094 C132.9688,21.5156 133,21.6406 133.1406,21.7656 C133.2813,21.9063 133.5156,22.0156 133.7344,22.0156 C134,22.0156 134.2656,21.875 134.4375,21.6563 C134.5469,21.5 134.5781,21.3125 134.5781,20.8906 L134.5781,19.4688 C134.5781,19.0313 134.5625,18.9063 134.4688,18.75 C134.3125,18.4844 134.0313,18.3438 133.7344,18.3438 C133.4375,18.3438 133.2344,18.4375 133.0156,18.75 L132.8438,18.6719 Z " fill="#000000"/><text fill="#000000" font-family="sans-serif" font-size="14" lengthAdjust="spacing" textLength="60" x="144.5" y="27.8467">QObject</text><line style="stroke:#181818;stroke-width:0.5;" x1="116.5" x2="206.5" y1="39" y2="39"/><line style="stroke:#181818;stroke-width:0.5;" x1="116.5" x2="206.5" y1="47" y2="47"/></g><!--MD5=[5aa364fec574a5506708313a1317e684]
class MindMapControllerBase--><g id="elem_MindMapControllerBase"><rect codeLine="15" fill="#F1F1F1" height="406.5313" id="MindMapControllerBase" rx="2.5" ry="2.5" style="stroke:#181818;stroke-width:0.5;" width="242" x="40.5" y="402"/><ellipse cx="73.05" cy="418" fill="#ADD1B2" rx="11" ry="11" style="stroke:#181818;stroke-width:1.0;"/><path d="M75.3938,413.6719 C74.4563,413.2344 73.8625,413.0938 72.9875,413.0938 C70.3625,413.0938 68.3625,415.1719 68.3625,417.8906 L68.3625,419.0156 C68.3625,421.5938 70.4719,423.4844 73.3625,423.4844 C74.5813,423.4844 75.7375,423.1875 76.4875,422.6406 C77.0656,422.2344 77.3938,421.7813 77.3938,421.3906 C77.3938,420.9375 77.0031,420.5469 76.5344,420.5469 C76.3156,420.5469 76.1125,420.625 75.925,420.8125 C75.4719,421.2969 75.4719,421.2969 75.2844,421.3906 C74.8625,421.6563 74.175,421.7813 73.4094,421.7813 C71.3625,421.7813 70.0656,420.6875 70.0656,418.9844 L70.0656,417.8906 C70.0656,416.1094 71.3156,414.7969 73.05,414.7969 C73.6281,414.7969 74.2375,414.9531 74.7063,415.2031 C75.1906,415.4844 75.3625,415.7031 75.4563,416.1094 C75.5188,416.5156 75.55,416.6406 75.6906,416.7656 C75.8313,416.9063 76.0656,417.0156 76.2844,417.0156 C76.55,417.0156 76.8156,416.875 76.9875,416.6563 C77.0969,416.5 77.1281,416.3125 77.1281,415.8906 L77.1281,414.4688 C77.1281,414.0313 77.1125,413.9063 77.0188,413.75 C76.8625,413.4844 76.5813,413.3438 76.2844,413.3438 C75.9875,413.3438 75.7844,413.4375 75.5656,413.75 L75.3938,413.6719 Z " fill="#000000"/><text fill="#000000" font-family="sans-serif" font-size="14" lengthAdjust="spacing" textLength="171" x="90.95" y="422.8467">MindMapControllerBase</text><line style="stroke:#181818;stroke-width:0.5;" x1="41.5" x2="281.5" y1="434" y2="434"/><text fill="#000000" font-family="sans-serif" font-size="14" lengthAdjust="spacing" textLength="199" x="46.5" y="450.9951">MindItemModel* itemModel</text><text fill="#000000" font-family="sans-serif" font-size="14" lengthAdjust="spacing" textLength="230" x="46.5" y="467.292">QAstractItemModel* styleModel</text><text fill="#000000" font-family="sans-serif" font-size="14" lengthAdjust="spacing" textLength="151" x="46.5" y="483.5889">int defaultStyleIndex</text><text fill="#000000" font-family="sans-serif" font-size="14" lengthAdjust="spacing" textLength="91" x="46.5" y="499.8857">bool spacing</text><text fill="#000000" font-family="sans-serif" font-size="14" lengthAdjust="spacing" textLength="218" x="46.5" y="516.1826">SelectionController* selection</text><text fill="#000000" font-family="sans-serif" font-size="14" lengthAdjust="spacing" textLength="98" x="46.5" y="532.4795">bool canRedo</text><text fill="#000000" font-family="sans-serif" font-size="14" lengthAdjust="spacing" textLength="97" x="46.5" y="548.7764">bool canUndo</text><text fill="#000000" font-family="sans-serif" font-size="14" lengthAdjust="spacing" textLength="123" x="46.5" y="565.0732">QString errorMsg</text><text fill="#000000" font-family="sans-serif" font-size="14" lengthAdjust="spacing" textLength="149" x="46.5" y="581.3701">QRectF contentRect</text><text fill="#000000" font-family="sans-serif" font-size="14" lengthAdjust="spacing" textLength="163" x="46.5" y="597.667">bool linkLabelVisibility</text><text fill="#000000" font-family="sans-serif" font-size="14" lengthAdjust="spacing" textLength="128" x="46.5" y="613.9639">bool hasSelection</text><text fill="#000000" font-family="sans-serif" font-size="14" lengthAdjust="spacing" textLength="185" x="46.5" y="630.2607">ImageModel* imageModel</text><text fill="#000000" font-family="sans-serif" font-size="14" lengthAdjust="spacing" textLength="223" x="46.5" y="646.5576">SpacingController* spacingCtrl</text><text fill="#000000" font-family="sans-serif" font-size="14" lengthAdjust="spacing" textLength="118" x="46.5" y="662.8545">qreal zoomLevel</text><line style="stroke:#181818;stroke-width:0.5;" x1="41.5" x2="281.5" y1="670.1563" y2="670.1563"/><text fill="#000000" font-family="sans-serif" font-size="14" lengthAdjust="spacing" textLength="122" x="46.5" y="687.1514">void addNode(…)</text><text fill="#000000" font-family="sans-serif" font-size="14" lengthAdjust="spacing" textLength="115" x="46.5" y="703.4482">void addLink(…)</text><text fill="#000000" font-family="sans-serif" font-size="14" lengthAdjust="spacing" textLength="145" x="46.5" y="719.7451">void addPackage(…)</text><text fill="#000000" font-family="sans-serif" font-size="14" lengthAdjust="spacing" textLength="136" x="46.5" y="736.042">void createLink(…)</text><text fill="#000000" font-family="sans-serif" font-size="14" lengthAdjust="spacing" textLength="134" x="46.5" y="752.3389">void importFile(…)</text><text fill="#000000" font-family="sans-serif" font-size="14" lengthAdjust="spacing" textLength="145" x="46.5" y="768.6357">void reparenting(…)</text><text fill="#000000" font-family="sans-serif" font-size="14" lengthAdjust="spacing" textLength="152" x="46.5" y="784.9326">void addImageFor(…)</text><text fill="#000000" font-family="sans-serif" font-size="14" lengthAdjust="spacing" textLength="148" x="46.5" y="801.2295">void removeItem(…)</text></g><!--MD5=[39c228c78f2a40484273373d4311b1b4]
class MindMapController--><g id="elem_MindMapController"><rect codeLine="42" fill="#F1F1F1" height="113.1875" id="MindMapController" rx="2.5" ry="2.5" style="stroke:#181818;stroke-width:0.5;" width="309" x="7" y="869"/><ellipse cx="88.75" cy="885" fill="#ADD1B2" rx="11" ry="11" style="stroke:#181818;stroke-width:1.0;"/><path d="M91.0938,880.6719 C90.1563,880.2344 89.5625,880.0938 88.6875,880.0938 C86.0625,880.0938 84.0625,882.1719 84.0625,884.8906 L84.0625,886.0156 C84.0625,888.5938 86.1719,890.4844 89.0625,890.4844 C90.2813,890.4844 91.4375,890.1875 92.1875,889.6406 C92.7656,889.2344 93.0938,888.7813 93.0938,888.3906 C93.0938,887.9375 92.7031,887.5469 92.2344,887.5469 C92.0156,887.5469 91.8125,887.625 91.625,887.8125 C91.1719,888.2969 91.1719,888.2969 90.9844,888.3906 C90.5625,888.6563 89.875,888.7813 89.1094,888.7813 C87.0625,888.7813 85.7656,887.6875 85.7656,885.9844 L85.7656,884.8906 C85.7656,883.1094 87.0156,881.7969 88.75,881.7969 C89.3281,881.7969 89.9375,881.9531 90.4063,882.2031 C90.8906,882.4844 91.0625,882.7031 91.1563,883.1094 C91.2188,883.5156 91.25,883.6406 91.3906,883.7656 C91.5313,883.9063 91.7656,884.0156 91.9844,884.0156 C92.25,884.0156 92.5156,883.875 92.6875,883.6563 C92.7969,883.5 92.8281,883.3125 92.8281,882.8906 L92.8281,881.4688 C92.8281,881.0313 92.8125,880.9063 92.7188,880.75 C92.5625,880.4844 92.2813,880.3438 91.9844,880.3438 C91.6875,880.3438 91.4844,880.4375 91.2656,880.75 L91.0938,880.6719 Z " fill="#000000"/><text fill="#000000" font-family="sans-serif" font-size="14" lengthAdjust="spacing" textLength="137" x="109.25" y="889.8467">MindMapController</text><line style="stroke:#181818;stroke-width:0.5;" x1="8" x2="315" y1="901" y2="901"/><text fill="#000000" font-family="sans-serif" font-size="14" lengthAdjust="spacing" textLength="297" x="13" y="917.9951">RemotePlayerModel* remotePlayerModel</text><text fill="#000000" font-family="sans-serif" font-size="14" lengthAdjust="spacing" textLength="186" x="13" y="934.292">PlayerModel* playerModel</text><text fill="#000000" font-family="sans-serif" font-size="14" lengthAdjust="spacing" textLength="108" x="13" y="950.5889">bool readWrite</text><text fill="#000000" font-family="sans-serif" font-size="14" lengthAdjust="spacing" textLength="268" x="13" y="966.8857">Core::SharingPermission sharingToAll</text><line style="stroke:#181818;stroke-width:0.5;" x1="8" x2="315" y1="974.1875" y2="974.1875"/></g><!--MD5=[b95ce8c64d642e42a793bb032386af19]
reverse link QObject to MediaControllerBase--><g id="link_QObject_MediaControllerBase"><path d="M161.5,75.381 C161.5,87.376 161.5,100.972 161.5,114.983 " fill="none" id="QObject-backto-MediaControllerBase" style="stroke:#181818;stroke-width:1.0;"/><polygon fill="none" points="154.5,75.194,161.5,55.194,168.5,75.194,154.5,75.194" style="stroke:#181818;stroke-width:1.0;"/></g><!--MD5=[70842dcc5529a89d0c8a6e3676509eb1]
reverse link MediaControllerBase to MindMapControllerBase--><g id="link_MediaControllerBase_MindMapControllerBase"><path d="M161.5,362.448 C161.5,375.24 161.5,388.403 161.5,401.669 " fill="none" id="MediaControllerBase-backto-MindMapControllerBase" style="stroke:#181818;stroke-width:1.0;"/><polygon fill="none" points="154.5,362.012,161.5,342.012,168.5,362.012,154.5,362.012" style="stroke:#181818;stroke-width:1.0;"/></g><!--MD5=[dc7720b95c57b4d697e995d3ac7364f5]
reverse link MindMapControllerBase to MindMapController--><g id="link_MindMapControllerBase_MindMapController"><path d="M161.5,829.596 C161.5,843.653 161.5,856.908 161.5,868.802 " fill="none" id="MindMapControllerBase-backto-MindMapController" style="stroke:#181818;stroke-width:1.0;"/><polygon fill="none" points="154.5,829.245,161.5,809.245,168.5,829.245,154.5,829.245" style="stroke:#181818;stroke-width:1.0;"/></g><!--MD5=[8b19b000aac239ab99ea06ba75e2d1a3]
@startuml
class MediaControllerBase extends QObject {
 QString name
 QString title
 QString uuid
 QUrl url
 Core::ContenType contentType
 bool active
 bool modified
 bool localGM
 QString ownerId
 QString localId
 bool remote
}

class MindMapControllerBase extends MediaControllerBase {
MindItemModel* itemModel
QAstractItemModel* styleModel
int defaultStyleIndex
bool spacing
SelectionController* selection
bool canRedo
bool canUndo
QString errorMsg
QRectF contentRect
bool linkLabelVisibility
bool hasSelection
ImageModel* imageModel
SpacingController* spacingCtrl
qreal zoomLevel

void addNode(…)
void addLink(…)
void addPackage(…)
void createLink(…)
void importFile(…)
void reparenting(…)
void addImageFor(…)
void removeItem(…)
}


class MindMapController extends MindMapControllerBase{
RemotePlayerModel* remotePlayerModel
PlayerModel* playerModel
bool readWrite
Core::SharingPermission sharingToAll
}
@enduml

PlantUML version 1.2022.7beta2(Unknown compile time)
(GPL source distribution)
Java Runtime: Java(TM) SE Runtime Environment
JVM: Java HotSpot(TM) 64-Bit Server VM
Default Encoding: UTF-8
Language: en
Country: US
--></g></svg>